{
  "type": "service_account",
  "project_id": "phum-code-dev",
  "private_key_id": "e589fc2065ee2db616095888ab50f1fbd186653f",
  "private_key": "-----BEGIN PRIVATE KEY-----\nMIIEvQIBADANBgkqhkiG9w0BAQEFAASCBKcwggSjAgEAAoIBAQDltb2j8DX+s9MD\ntO1DRCEn8Qsn284l4QY1UA/9hLA1kRAk3x4yPafcbKDygsAAbbvkCgKqKCJySmWK\nKTs0BkOAVRpqCqLRXC9gPVjzVr2PqJHw+houx5IrBLXtHMVOIEhkpse3cHkuujH9\nQUMGHZWL5NGtW9I52Xszg+M5SOGORhpYIk5M3ILA0Nc6C9UKRV8QLalZyOhVnXYB\natqnAfF5sANB7x+b5jQZUrHIPNK33AA39sxSquwCbBNh+E+B7IbuHM0RTTVmSoJL\nF/f2AWrL+OTfgSzntd1vPqzLHfLi27nl/fvOQrVw1PKe1CXvM0s50bsaRTFyW3rL\nlDw+/K5PAgMBAAECggEABQwZPqDojtAkstAm5nN4xwfk1ttdjDeFi2ZW85sWxBaL\n5EOCxlfUeGNqpel5jojauAgARvzaxOgdkwuU4W/By/ASxIG3UiJUaCjw62fcgmuR\nyVm1eZGpBIj19l/Ldgv/izae7Mjr4Lr2njnw3xGHV6uPb9+0ntDIhDlBpOCVFCsr\ngLE246adSYWg+z+cQ1vAPyL3r3ZoKq2sork71rbhqIOoW1r39vdJFZO7KOqcvsCU\noktNzJTbsHIALUVZhF7nLqwgEmoLLJgKDRh5GvgUPmzGNvZ1DrCujUvVGOMrdn8S\nsMIH3bevsyJ4PC9fQdGwbPcW+XNRa/XZvhz5+7QpAQKBgQD1iPjE4FN2TPjq05iE\nhA8n9tgO31/DkPQLRz3m9rFtKQaR5xQdMRdIu3Cm8hQ4g72nYofektqODunCTFus\nuK0q1NvK6mJhVNF35CnUW0WWt2RjeW+s/lfijIp9IE+gQ5G8yvjjx5vDBigHW1Yc\nW9o7oz2/uv4togS4gbt4VT0oUwKBgQDvgBn3fgu58HsIsE0AWh7Rm5uAcjduh+PZ\nlv+yRpYjth3o/z35ijr/1epx1SHoLuezWEnvMR6KhPyEafZzjARqwHz3CKyt6RRN\nwYDyow51DrXQYPibcOFQlA7IbZpZb+ek9TPqj0PZvMdXl3kopxc9VqoJf5S5/I6i\nS38l7OwylQKBgGp0DlddYxJBYRJ+1vttPhz3mskn858Ys5ZINwByKI7JYL3VUBUv\n+YZhLgBTqIywIYP25i2LwhIhSRwiewSxtPKDAyBA6pKEcaTnWXNmdw9XR8ERH2gD\nhhsFD+4cGinD4eXWon4vRssRWj2GThlRgZaludnsutMSEbXlGWCcpD1dAoGAMdTx\nkjFDt1h2AQTNwLj/mJVL8ZnSNslHe0qTwUA2lQ+bgZM6DeXZCMo1kaHLAEhiJUrF\nd2M8+41YDSUPBlOnx55tYekIJNdORi9w6QtMQsbgxY6nq4/9EYr82G8Vom5KQGRU\nfQV6FJ/Wyj7WEsNRbo3Nq1REWb5W3yXeOsHlE1ECgYEAzpeCUP98QGwM7cNuKE27\nfifvx6MoCJWYxxVG4iRyabOnOhUylIWniTTB00qL14UJkYC12Ec5+axSTsrapSAA\nhDmks9yJL0AtTZ2ta2S1Lu+y5cD721G4GLRiSJrIKBk59+mbo+Dhm76sscEGU5Ly\n0Dr4qcvw+Ya6zuDoN1DEUP8=\n-----END PRIVATE KEY-----\n",
  "client_email": "firebase-adminsdk-g384h@phum-code-dev.iam.gserviceaccount.com",
  "client_id": "116681085611595771591",
  "auth_uri": "https://accounts.google.com/o/oauth2/auth",
  "token_uri": "https://oauth2.googleapis.com/token",
  "auth_provider_x509_cert_url": "https://www.googleapis.com/oauth2/v1/certs",
  "client_x509_cert_url": "https://www.googleapis.com/robot/v1/metadata/x509/firebase-adminsdk-g384h%40phum-code-dev.iam.gserviceaccount.com"
}
